module gitlab.com/maeldonn/ingestor

go 1.22.3

require (
	github.com/go-playground/validator v9.31.0+incompatible
	github.com/labstack/echo/v4 v4.12.0
	github.com/labstack/gommon v0.4.2
	go.mongodb.org/mongo-driver v1.15.0
)

require (
	github.com/davecgh/go-spew v1.1.2-0.20180830191138-d8f796af33cc // indirect
	github.com/go-playground/locales v0.14.1 // indirect
	github.com/go-playground/universal-translator v0.18.1 // indirect
	github.com/golang-jwt/jwt v3.2.2+incompatible // indirect
	github.com/golang/snappy v0.0.4 // indirect
	github.com/google/go-cmp v0.6.0 // indirect
	github.com/klauspost/compress v1.17.8 // indirect
	github.com/leodido/go-urn v1.4.0 // indirect
	github.com/mattn/go-colorable v0.1.13 // indirect
	github.com/mattn/go-isatty v0.0.20 // indirect
	github.com/montanaflynn/stats v0.7.1 // indirect
	github.com/pmezard/go-difflib v1.0.1-0.20181226105442-5d4384ee4fb2 // indirect
	github.com/stretchr/testify v1.9.0 // indirect
	github.com/valyala/bytebufferpool v1.0.0 // indirect
	github.com/valyala/fasttemplate v1.2.2 // indirect
	github.com/xdg-go/pbkdf2 v1.0.0 // indirect
	github.com/xdg-go/scram v1.1.2 // indirect
	github.com/xdg-go/stringprep v1.0.4 // indirect
	github.com/youmark/pkcs8 v0.0.0-20240424034433-3c2c7870ae76 // indirect
	golang.org/x/crypto v0.23.0 // indirect
	golang.org/x/net v0.25.0 // indirect
	golang.org/x/sync v0.7.0 // indirect
	golang.org/x/sys v0.20.0 // indirect
	golang.org/x/text v0.15.0 // indirect
	golang.org/x/time v0.5.0 // indirect
	gopkg.in/go-playground/assert.v1 v1.2.1 // indirect
)
